{
	"Title":"Citizenship",
	"Table":"citizenship",
	"File":"modelCitizen",
	"Description":"",
	"Action":[true,true,true,false],
	"Label":["Code","Name","Remarks"],
	"Fields":["Code","Name","Remarks"]
}