{
	"Title":"Signatories",
	"Table":"signatories",
	"File":"modelSignatories",
	"Description":"",
	"Action":[true,true,true,false],
	"Label":["Code","Name","Remarks"],
	"Fields":["Code","Name","Remarks"]
}