10182017 04:06:33 AM->URL:/ProgFiles/hris/min/e2e/resources/views/pages/PopCaller.e2e.php?hSess=MTUwODI5MDQzODIwMTcxMDE4XzE1MDgyOTA0MzgyMDE3MTAxOF9heg==&hUser=admin&hUserLvl=&hCompanyID=1000&hBranchID=1&hUserRefID=46&hmemof=pis&hRefId=0&file=FMCaller&f=awards&hScrnMode=1
10182017 04:06:44 AM->URL:/ProgFiles/hris/min/e2e/resources/views/pages/PopCaller.e2e.php?hSess=MTUwODI5MDQzODIwMTcxMDE4XzE1MDgyOTA0MzgyMDE3MTAxOF9heg==&hUser=admin&hUserLvl=&hCompanyID=1000&hBranchID=1&hUserRefID=46&hmemof=pis&hRefId=0&file=FMCaller&f=awards&hScrnMode=1
10182017 06:35:59 AM->URL:/ProgFiles/hris/min/e2e/resources/views/pages/PopCaller.e2e.php?hSess=MTUwODI5ODY3MzIwMTcxMDE4XzE1MDgyOTg2NzMyMDE3MTAxOF9heg==&hUser=admin&hUserLvl=&hCompanyID=1000&hBranchID=1&hUserRefID=46&hmemof=pis&hRefId=0&file=FMCaller&f=awards&hScrnMode=1
10182017 06:40:06 AM->URL:/ProgFiles/hris/min/e2e/resources/views/pages/PopCaller.e2e.php?hSess=MTUwODMwMTUzNDIwMTcxMDE4XzE1MDgzMDE1MzQyMDE3MTAxOF9heg==&hUser=admin&hUserLvl=&hCompanyID=1000&hBranchID=1&hUserRefID=46&hmemof=pis&hRefId=0&file=FMCaller&f=Agency&hScrnMode=1
10182017 06:52:26 AM->URL:/ProgFiles/hris/min/e2e/resources/views/pages/PopCaller.e2e.php?hSess=MTUwODMwMjMxMDIwMTcxMDE4XzE1MDgzMDIzMTAyMDE3MTAxOF9heg==&hUser=admin&hUserLvl=&hCompanyID=1000&hBranchID=1&hUserRefID=46&hmemof=&hRefId=&file=FMCaller&f=leavepolicygroup&hScrnMode=1
