02202018 01:41:22 PM->URL:/HRISDEV/hris/min/e2e/resources/views/pages/GlobalCaller.e2e.php?hSess=MTUxOTEwNTI4MTIwMTgwMjIwXzE1MTkxMDUyODEyMDE4MDIyMF9heg==&hUser=crdaquis&hUserRefId=68&hCompanyID=2&hBranchID=1&hsysgrp=&hucode=COMPEMP&hUserGroup=COMPEMP&ccode=PCC&hEmpRefId=68&h=Secret&loginT=2018-02-20%2001:41:21%20PM&file=scrnWelcome&auth=init
02202018 01:43:49 PM->URL:/HRISDEV/hris/min/e2e/resources/views/pages/GlobalCaller.e2e.php?hSess=MTUxOTEwNTI4MTIwMTgwMjIwXzE1MTkxMDUyODEyMDE4MDIyMF9heg==&hUser=crdaquis&hUserRefId=68&hCompanyID=2&hBranchID=1&hsysgrp=&hucode=COMPEMP&hUserGroup=COMPEMP&ccode=PCC&hEmpRefId=68&h=Secret&loginT=2018-02-20%2001:41:21%20PM&file=scrn201File&paramTitle=201%20File&hTable=Employees&auth=34a5aa93825115205f27595dbb72278fddd2e329
02202018 01:59:07 PM->URL:/HRISDEV/hris/min/e2e/resources/views/pages/GlobalCaller.e2e.php?hSess=MTUxOTEwNjM0NzIwMTgwMjIwXzE1MTkxMDYzNDcyMDE4MDIyMF9heg==&hUser=crdaquis&hUserRefId=68&hCompanyID=2&hBranchID=1&hsysgrp=&hucode=COMPEMP&hUserGroup=COMPEMP&ccode=PCC&hEmpRefId=68&h=Secret&loginT=2018-02-20%2001:59:07%20PM&file=scrnWelcome&auth=init
02202018 01:59:13 PM->URL:/HRISDEV/hris/min/e2e/resources/views/pages/GlobalCaller.e2e.php?hSess=MTUxOTEwNjM0NzIwMTgwMjIwXzE1MTkxMDYzNDcyMDE4MDIyMF9heg==&hUser=crdaquis&hUserRefId=68&hCompanyID=2&hBranchID=1&hsysgrp=&hucode=COMPEMP&hUserGroup=COMPEMP&ccode=PCC&hEmpRefId=68&h=Secret&loginT=2018-02-20%2001:59:07%20PM&file=scrn201File&paramTitle=201%20File&hTable=Employees&auth=86c4b17abfea1b61d13452ba19cc682fd07bdba5
