02132018 07:18:45 AM->URL:/HRISDEV/hris/min/e2e/resources/views/pages/PopCaller.e2e.php?hSess=MTUxODQ3NzE1MjIwMTgwMjEzXzE1MTg0NzcxNTIyMDE4MDIxM19heg==&hUser=rfallera&hUserRefId=129&hCompanyID=2&hBranchID=1&hsysgrp=&hucode=COMPEMP&hUserGroup=COMPEMP&ccode=PCC&hEmpRefId=129&h=Secret&loginT=2018-02-13%2007:12:32%20AM&file=FMCaller&f=Position&hScrnMode=1&objid=sint_PositionRefId_1
02132018 07:18:48 AM->URL:/HRISDEV/hris/min/e2e/resources/views/pages/PopCaller.e2e.php?hSess=MTUxODQ3NzE1MjIwMTgwMjEzXzE1MTg0NzcxNTIyMDE4MDIxM19heg==&hUser=rfallera&hUserRefId=129&hCompanyID=2&hBranchID=1&hsysgrp=&hucode=COMPEMP&hUserGroup=COMPEMP&ccode=PCC&hEmpRefId=129&h=Secret&loginT=2018-02-13%2007:12:32%20AM&file=FMCaller&f=Agency&hScrnMode=1&objid=sint_AgencyRefId_1
02132018 07:44:25 AM->URL:/HRISDEV/hris/min/e2e/resources/views/pages/PopCaller.e2e.php?hSess=MTUxODQ3NzE1MjIwMTgwMjEzXzE1MTg0NzcxNTIyMDE4MDIxM19heg==&hUser=rfallera&hUserRefId=129&hCompanyID=2&hBranchID=1&hsysgrp=&hucode=COMPEMP&hUserGroup=COMPEMP&ccode=PCC&hEmpRefId=129&h=Secret&loginT=2018-02-13%2007:12:32%20AM&file=FMCaller&f=Seminars&hScrnMode=1&objid=bint_SeminarsRefId_1
02132018 07:48:22 AM->URL:/HRISDEV/hris/min/e2e/resources/views/pages/PopCaller.e2e.php?hSess=MTUxODQ3NzE1MjIwMTgwMjEzXzE1MTg0NzcxNTIyMDE4MDIxM19heg==&hUser=rfallera&hUserRefId=129&hCompanyID=2&hBranchID=1&hsysgrp=&hucode=COMPEMP&hUserGroup=COMPEMP&ccode=PCC&hEmpRefId=129&h=Secret&loginT=2018-02-13%2007:12:32%20AM&file=FMCaller&f=Seminars&hScrnMode=1&objid=bint_SeminarsRefId_1
02132018 08:11:11 AM->URL:/HRISDEV/hris/min/e2e/resources/views/pages/PopCaller.e2e.php?hSess=MTUxODQ3NzE1MjIwMTgwMjEzXzE1MTg0NzcxNTIyMDE4MDIxM19heg==&hUser=rfallera&hUserRefId=129&hCompanyID=2&hBranchID=1&hsysgrp=&hucode=COMPEMP&hUserGroup=COMPEMP&ccode=PCC&hEmpRefId=129&h=Secret&loginT=2018-02-13%2007:12:32%20AM&file=FMCaller&f=Seminars&hScrnMode=1&objid=bint_SeminarsRefId_2
02132018 09:01:18 AM->URL:/HRISDEV/hris/min/e2e/resources/views/pages/PopCaller.e2e.php?hSess=MTUxODQ3NzE1MjIwMTgwMjEzXzE1MTg0NzcxNTIyMDE4MDIxM19heg==&hUser=rfallera&hUserRefId=129&hCompanyID=2&hBranchID=1&hsysgrp=&hucode=COMPEMP&hUserGroup=COMPEMP&ccode=PCC&hEmpRefId=129&h=Secret&loginT=2018-02-13%2007:12:32%20AM&file=FMCaller&f=Seminars&hScrnMode=1&objid=bint_SeminarsRefId_1
